<?xml version="1.0" encoding="UTF-8"?>
<!DOCTYPE svg PUBLIC "-//W3C//DTD SVG 1.1//EN" "http://www.w3.org/Graphics/SVG/1.1/DTD/svg11.dtd">
<!-- Creator: CorelDRAW 2017 -->
<svg xmlns="http://www.w3.org/2000/svg" xml:space="preserve" width="12cm" height="3cm" version="1.1" style="shape-rendering:geometricPrecision; text-rendering:geometricPrecision; image-rendering:optimizeQuality; fill-rule:evenodd; clip-rule:evenodd"
viewBox="0 0 12000 3000"
 xmlns:xlink="http://www.w3.org/1999/xlink">
 <defs>
  <font id="FontID0" horiz-adv-x="665" font-variant="normal" style="fill-rule:nonzero" font-weight="500">
    <font-face 
        font-family="Roboto Medium">
        <font-face-src>
            <font-face-name name="Roboto Medium"/>
        </font-face-src>
    </font-face>
   <missing-glyph><path d="M0 0z"/></missing-glyph>
   <glyph unicode="c" horiz-adv-x="523" d="M277.668 84.9969c29.5016,0 54.163,8.66694 73.6654,25.8378 19.5024,17.1638 29.9977,38.5016 31.167,63.8292l111.834 0c-1.16929,-32.9953 -11.5016,-63.6662 -30.6709,-92.1615 -19.1622,-28.5024 -45.3331,-51.0024 -78.1654,-67.6701 -32.8323,-16.4977 -68.3292,-24.8315 -106.498,-24.8315 -73.8355,0 -132.499,24.0024 -175.67,71.83 -43.3276,47.8347 -64.9985,114.002 -64.9985,198.333l0 12.1677c0,80.3339 21.5008,144.836 64.5024,193.167 43.0016,48.3378 101.502,72.5032 175.663,72.5032 62.8371,0 114.173,-18.3331 153.666,-54.9993 39.5008,-36.5032 60.3355,-84.6709 62.1709,-144.333l-111.834 0c-1.16929,30.4937 -11.5016,55.3323 -30.9969,74.9977 -19.3394,19.5024 -44.0008,29.3315 -73.8355,29.3315 -38.5016,0 -68.1662,-13.9961 -89.0009,-41.8323 -20.8347,-27.8362 -31.337,-70.0016 -31.6701,-126.666l0 -18.9992c0,-57.3378 10.3394,-99.9993 31.004,-128.169 20.6646,-28.1622 50.4993,-42.3355 89.667,-42.3355z"/>
   <glyph unicode="y" horiz-adv-x="486" d="M245.665 170.001l107.504 358.002 126.496 0 -209.998 -607.834c-32.3362,-88.8379 -87.0024,-133.172 -164.169,-133.172 -17.1638,0 -36.163,3.00473 -56.9977,8.83701l0 92.6646 22.3299 -1.50236c30.0047,0 52.5048,5.5063 67.6701,16.3347 15.1654,10.8354 27.163,29.1685 35.8299,54.8363l17.1709 45.163 -185.499 524.672 127.828 0 111.834 -358.002z"/>
   <glyph unicode="h" horiz-adv-x="555" d="M177.669 470.665c38.6646,44.837 87.6615,67.3371 146.998,67.3371 112.5,0 169.668,-64.3323 171.333,-192.834l0 -345.168 -118.665 0 0 340.831c0,36.5032 -7.83071,62.3339 -23.6693,77.4993 -15.8315,15.1725 -38.9977,22.6701 -69.4985,22.6701 -47.6646,0 -83.1686,-21.1677 -106.498,-63.5032l0 -377.497 -118.665 0 0 749.998 118.665 0 0 -279.333z"/>
   <glyph unicode="e" horiz-adv-x="536" d="M293.67 -9.99922c-75.1678,0 -136.169,23.6693 -182.835,71.0008 -46.6654,47.5016 -70.1646,110.502 -70.1646,189.333l0 14.6622c0,52.6678 10.1622,99.8363 30.6638,141.336 20.3315,41.4992 48.8339,73.8355 85.6631,97.0017 36.6662,23.1662 77.6694,34.6677 123.002,34.6677 72.0001,0 127.502,-23.0032 166.67,-69.0024 39.3307,-45.9992 58.8331,-110.998 58.8331,-195.003l0 -47.9977 -345.168 0c3.66378,-43.4977 18.163,-77.8323 43.6678,-102.997 25.6607,-25.3347 57.8339,-38.0055 96.4985,-38.0055 54.3331,0 98.667,21.8339 132.832,65.6717l63.9993 -61.0016c-21.1677,-31.6701 -49.5,-56.1685 -84.8339,-73.5024 -35.3339,-17.4969 -74.8347,-26.1638 -118.828,-26.1638zm-14.1662 452.998c-32.5063,0 -58.8402,-11.5016 -78.8386,-34.3347 -19.9984,-22.8331 -32.8323,-54.8292 -38.3315,-95.6623l225.999 0 0 8.82993c-2.50158,39.8339 -13.1669,70.0016 -31.663,90.5032 -18.5032,20.5016 -44.3339,30.6638 -77.1662,30.6638z"/>
   <glyph unicode="Y" horiz-adv-x="609" d="M304.165 374.003l163.665 336.997 136.673 0 -238.337 -449.334 0 -261.666 -124.002 0 0 261.666 -238.663 449.334 137.169 0 163.495 -336.997z"/>
   <glyph unicode="d" horiz-adv-x="564" d="M38.3315 267.832c0,81.5032 18.8362,146.835 56.6717,196.172 37.8284,49.33 88.3276,73.9985 151.831,73.9985 55.9985,0 101.332,-19.5024 135.829,-58.6701l0 270.666 118.673 0 0 -749.998 -107.504 0 -5.83229 54.5032c-35.4969,-43.0016 -82.8355,-64.5024 -142.165,-64.5024 -61.8378,0 -111.834,24.8315 -150.165,74.6646 -38.1685,49.8331 -57.3378,117.666 -57.3378,203.166zm118.665 -9.99922c0,-53.667 10.3394,-95.4993 31.004,-125.667 20.6646,-30.1677 49.9961,-45.163 88.1646,-45.163 48.5008,0 83.9977,21.6638 106.498,64.9985l0 225.496c-21.8268,42.3355 -56.9977,63.5032 -105.499,63.5032 -38.5016,0 -67.9961,-15.1654 -88.8308,-45.6662 -20.8347,-30.5008 -31.337,-76.167 -31.337,-137.502z"/>
   <glyph unicode="a" horiz-adv-x="540" d="M376.498 0c-5.32914,9.99922 -9.82914,26.3339 -13.663,49.167 -37.8355,-39.5008 -84.0048,-59.1662 -138.671,-59.1662 -53.1638,0 -96.3284,15.1654 -129.997,45.4961 -33.4985,30.3378 -50.1662,67.8331 -50.1662,112.5 0,56.3386 20.8347,99.6662 62.667,129.834 41.8323,30.1677 101.665,45.1701 179.497,45.1701l72.6662 0 0 34.6677c0,27.3331 -7.66772,49.167 -22.8331,65.6646 -15.3284,16.4977 -38.6646,24.6685 -69.8316,24.6685 -27,0 -49.167,-6.83859 -66.5008,-20.3386 -17.1638,-13.5 -25.8307,-30.6638 -25.8307,-51.4985l-118.665 0c0,28.9984 9.66615,55.9985 28.8284,81.1701 19.1693,25.1646 45.3331,45 78.3355,59.1662 33.0024,14.3291 70.0016,21.5008 110.665,21.5008 61.8378,0 111.168,-15.5055 147.834,-46.6654 36.8362,-31.004 55.6654,-74.6717 56.6717,-131.003l0 -238.33c0,-47.5016 6.66142,-85.3371 19.9984,-113.669l0 -8.33386 -121.004 0zm-130.5 84.9969c23.4992,0 45.5032,5.6693 66.1678,17.1709 20.6646,11.3315 36.3331,26.667 46.6654,45.9992l0 99.8363 -63.9993 0c-43.8307,0 -76.8331,-7.66772 -99.0001,-23.0032 -22.1669,-15.3354 -33.3284,-36.9992 -33.3284,-65.1686 0,-22.8331 7.66064,-40.9961 22.8331,-54.4961 15.1654,-13.5 35.3268,-20.3386 60.6615,-20.3386z"/>
   <glyph unicode="o" horiz-adv-x="569" d="M38.3315 268.831c0,51.8386 10.3323,98.504 30.8339,140.003 20.5016,41.4992 49.337,73.3323 86.4993,95.6623 36.9992,22.337 79.6678,33.5055 127.836,33.5055 71.3339,0 129.168,-23.0032 173.665,-68.8323 44.3339,-46.0063 68.3363,-106.838 72.0001,-182.672l0.50315 -27.8292c0,-52.1717 -9.99922,-98.667 -30.0047,-139.67 -20.1614,-40.9961 -48.6638,-72.8292 -85.9961,-95.3292 -37.3323,-22.5 -80.3339,-33.6685 -129.168,-33.6685 -74.5016,0 -134.164,24.8315 -179.001,74.5016 -44.667,49.663 -67.167,115.831 -67.167,198.496l0 5.83229zm118.665 -9.99922c0,-54.3331 11.3386,-96.8316 33.8386,-127.665 22.3299,-30.8339 53.667,-46.1693 93.6639,-46.1693 40.004,0 71.1638,15.6685 93.5009,46.8355 22.3299,31.337 33.4985,77.0032 33.4985,137.332 0,53.3339 -11.5016,95.6694 -34.4977,126.999 -22.8331,31.167 -54,46.8355 -93.5009,46.8355 -38.6646,0 -69.4985,-15.3354 -92.1686,-46.1622 -22.8331,-30.8339 -34.3347,-76.6701 -34.3347,-138.005z"/>
  </font>
  <style type="text/css">
   <![CDATA[
    @font-face { font-family:"Roboto Medium";font-variant:normal;font-weight:500;src:url("#FontID0") format(svg)}
    .fil1 {fill:#FEFEFE}
    .fil0 {fill:#D2D3D5}
    .fnt0 {font-weight:500;font-size:1411.11px;font-family:'Roboto Medium'}
   ]]>
  </style>
     <clipPath id="id0">
      <path d="M1521.36 2012.94c-154.02,-124.65 -308.04,-249.3 -462.06,-373.95 -70.94,-57.41 -136.83,-84.5 -139.18,-144.42 -0.04,-1.1 -0.06,-2.21 -0.06,-3.33 0,-55.75 91.8,-109.35 133.05,-142.74 154.71,-125.21 309.43,-250.42 464.14,-375.63 119.64,-96.83 239.28,-193.66 358.93,-290.49 35.06,-28.38 70.13,-56.76 105.2,-85.14 41.25,-33.38 107.49,-107.68 176.37,-107.68 35.78,0 81.95,27.2 120.71,59.94 43.28,36.57 77.32,80.06 77.32,100.33 0,39.6 -82.95,92.18 -114.48,117.7 -212.47,171.95 -424.95,343.91 -637.42,515.86 -63.78,51.62 -208.28,156.67 -250.63,207.85 48.79,58.96 231.6,192.44 306.33,252.92 64.68,52.32 129.36,104.65 194.03,156.97 141.65,114.6 283.29,229.19 424.94,343.78 59.25,47.08 112.45,90.79 37.66,155.82 -15.13,13.15 -28.84,25.02 -41.44,35.59 -135.2,113.38 -142.09,76.94 -391.87,-130.21 -17.51,-14.52 -36.21,-29.88 -56.23,-46.08 -101.77,-82.36 -203.54,-164.73 -305.31,-247.09z"/>
     </clipPath>
 </defs>
 <g id="Capa_x0020_1">
  <metadata id="CorelCorpID_0Corel-Layer"/>
  <g id="_2048781790848">
   <path class="fil0" d="M9417.09 647.54c0,57.06 159.81,165.48 232.09,224.38 89.65,73.05 170.28,138.75 259.92,211.8 79.38,64.68 475.97,379.03 510.52,421.08 -87.9,106.98 -1002.53,790.61 -1002.53,837.09 0,68.55 126.29,171.46 210.41,171.46 53.93,0 270.59,-195.24 318.73,-234.47l612.61 -499.27c48.05,-39.16 106.65,-93.75 157.81,-125.39 39.48,-24.42 46,-30.41 77.64,-56.05 145.71,-118.1 -1.71,-177.79 -278.72,-403.51l-804.49 -655.57c-29.91,-24.76 -60.76,-57.82 -113.77,-47.63 -46.44,8.92 -180.22,117.26 -180.22,156.08z"/>
   <g>
    <g style="clip-path:url(#id0)">
     <image x="878.08" y="447.58" width="1519.68" height="2093.99" xlink:href="data:image/png;base64,iVBORw0KGgoAAAANSUhEUgAAAEkAAABkCAIAAAEyJLr1AAAACXBIWXMA
AAAAAAAAAAHqZRakAAAAtElEQVR4nO3aMQrCYBAFYYvc/8jBE/gXS7Iw+E27PIfBFEG87vv+/OY6
3JxfOh++ktPUbXA7P/7DT7W0fHk5e26HQjMzM7P/mY1fC4a+TRkfHx8fHx8fHx/f5vvuahwZGRkZ
GRkZGRkZGRkZGRkZGRkZ2WOy5X8ObLL9q/Qm2ppoa6KtibYm2ppoa6KtibYm2ppoa6KtibYm2ppo
a6KtibYm2ppoa6KtibYm2ppoa6KtibYmXwTTF8cTzDaHAAAAAElFTkSuQmCC"/>
    </g>
   </g>
   <text x="2070.39" y="2011.65"  class="fil0 fnt0">Yachay</text>
   <text x="6603.58" y="2011.65"  class="fil1 fnt0">code</text>
  </g>
 </g>
</svg>
